<svg width="24" height="29" viewBox="0 0 24 29" fill="none" xmlns="http://www.w3.org/2000/svg">
<path d="M7.33333 4.66666H4.66667C3.95942 4.66666 3.28115 4.94761 2.78105 5.4477C2.28095 5.9478 2 6.62608 2 7.33332V23.3333C2 24.0406 2.28095 24.7188 2.78105 25.2189C3.28115 25.719 3.95942 26 4.66667 26H8.66667M20.6667 14V7.33332C20.6667 6.62608 20.3857 5.9478 19.8856 5.4477C19.3855 4.94761 18.7072 4.66666 18 4.66666H15.3333M12.6667 20.6667V19.3333C12.6667 18.9797 12.8071 18.6406 13.0572 18.3905C13.3072 18.1405 13.6464 18 14 18H15.3333M19.3333 18H20.6667C21.0203 18 21.3594 18.1405 21.6095 18.3905C21.8595 18.6406 22 18.9797 22 19.3333V20.6667M22 24.6667V26C22 26.3536 21.8595 26.6928 21.6095 26.9428C21.3594 27.1928 21.0203 27.3333 20.6667 27.3333H19.3333M15.3333 27.3333H14C13.6464 27.3333 13.3072 27.1928 13.0572 26.9428C12.8071 26.6928 12.6667 26.3536 12.6667 26V24.6667" stroke="#27AE60" stroke-width="3.33333" stroke-linecap="round" stroke-linejoin="round"/>
<path d="M7.33325 4.66667C7.33325 3.95942 7.6142 3.28115 8.1143 2.78105C8.6144 2.28095 9.29267 2 9.99992 2H12.6666C13.3738 2 14.0521 2.28095 14.5522 2.78105C15.0523 3.28115 15.3333 3.95942 15.3333 4.66667C15.3333 5.37391 15.0523 6.05219 14.5522 6.55228C14.0521 7.05238 13.3738 7.33333 12.6666 7.33333H9.99992C9.29267 7.33333 8.6144 7.05238 8.1143 6.55228C7.6142 6.05219 7.33325 5.37391 7.33325 4.66667Z" stroke="#27AE60" stroke-width="3.33333" stroke-linecap="round" stroke-linejoin="round"/>
</svg>
