<svg width="33" height="30" viewBox="0 0 33 30" fill="none" xmlns="http://www.w3.org/2000/svg">
<path d="M8.44444 21.5V2M8.44444 2L2 8.5M8.44444 2L14.8889 8.5M24.5556 8.5V28M24.5556 28L31 21.5M24.5556 28L18.1111 21.5" stroke="#04110A" stroke-width="3.5" stroke-linecap="round" stroke-linejoin="round"/>
</svg>
